<svg xmlns="http://www.w3.org/2000/svg" xml:space="preserve" width="256px" height="256px" version="1.1" style="shape-rendering:geometricPrecision; text-rendering:geometricPrecision; image-rendering:optimizeQuality; fill-rule:evenodd; clip-rule:evenodd"
viewBox="0 0 256 256"
 xmlns:xlink="http://www.w3.org/1999/xlink"
 xmlns:xodm="http://www.corel.com/coreldraw/odm/2003">
  <path fill="#00f" d="M21.15 53.27c-2.48,0 -4.5,-2.02 -4.5,-4.5 0,-2.49 2.02,-4.5 4.5,-4.5l9.43 0c4.22,0 8.13,1.36 11.42,3.85 3.17,2.39 5.72,5.82 7.36,10.06l5.34 13.81 152.64 0c2.89,0 5.59,0.73 8.03,2.14 2.36,1.36 4.41,3.34 6.06,5.87 1.61,2.46 2.67,5.17 3.15,8.03 0.48,2.8 0.39,5.72 -0.29,8.66l-5.14 22.53c-1.16,5.08 -3.68,9.38 -7.07,12.42 -3.53,3.18 -7.97,5 -12.78,5l-119.59 0 8.06 20.83c1.02,2.63 2.55,4.72 4.41,6.12 1.73,1.31 3.78,2.03 6,2.03l122.49 0c2.49,0 4.5,2.01 4.5,4.5 0,2.48 -2.01,4.5 -4.5,4.5l-122.49 0c-4.21,0 -8.13,-1.37 -11.42,-3.86 -3.16,-2.39 -5.72,-5.82 -7.36,-10.06l-10.29 -26.6c-0.1,-0.22 -0.19,-0.44 -0.26,-0.67l-21.27 -54.99c-0.1,-0.21 -0.19,-0.44 -0.26,-0.67l-6.33 -16.36c-1.02,-2.63 -2.54,-4.72 -4.4,-6.12 -1.73,-1.31 -3.79,-2.02 -6.01,-2.02l-9.43 0zm153.3 27.72l-5.76 46.65 30.61 0c2.53,0 4.88,-0.98 6.77,-2.68 2.05,-1.84 3.59,-4.51 4.33,-7.75l5.14 -22.5c0.41,-1.78 0.47,-3.54 0.18,-5.2 -0.27,-1.61 -0.88,-3.16 -1.81,-4.59 -0.89,-1.35 -1.91,-2.37 -3.04,-3.02 -1.04,-0.6 -2.23,-0.91 -3.53,-0.91l-32.89 0zm-14.83 46.65l5.77 -46.65 -51.54 0 5.77 46.65 40 0zm-49.07 0l-5.76 -46.65 -46.61 0 18.05 46.65 34.32 0zm85.08 55.72c5.66,0 10.78,2.3 14.51,6.02l0.02 0.02c3.71,3.72 6.01,8.85 6.01,14.5 0,5.65 -2.3,10.78 -6.01,14.51l-0.02 0.01c-3.73,3.72 -8.85,6.02 -14.51,6.02 -5.65,0 -10.78,-2.3 -14.5,-6.02l-0.02 -0.01c-3.71,-3.72 -6.01,-8.85 -6.01,-14.51 0,-5.67 2.3,-10.8 6.01,-14.52 3.72,-3.72 8.85,-6.02 14.52,-6.02zm8.16 12.36c-2.07,-2.07 -4.96,-3.36 -8.16,-3.36 -3.18,0 -6.07,1.29 -8.16,3.38 -2.08,2.09 -3.37,4.97 -3.37,8.16 0,3.2 1.28,6.08 3.37,8.17 2.08,2.08 4.97,3.37 8.16,3.37 3.2,0 6.09,-1.29 8.16,-3.36l0.02 -0.02c2.08,-2.08 3.36,-4.96 3.36,-8.16 0,-3.2 -1.28,-6.08 -3.36,-8.16l-0.02 -0.02zm-110.89 -12.36c5.67,0 10.8,2.3 14.52,6.02 3.72,3.72 6.02,8.85 6.02,14.52 0,5.66 -2.3,10.79 -6.02,14.51l-0.01 0.01c-3.72,3.72 -8.85,6.02 -14.51,6.02 -5.66,0 -10.79,-2.3 -14.5,-6.02l-0.02 -0.01c-3.72,-3.72 -6.02,-8.85 -6.02,-14.51 0,-5.67 2.3,-10.8 6.02,-14.52 3.72,-3.72 8.85,-6.02 14.52,-6.02zm8.16 12.38c-2.09,-2.09 -4.97,-3.38 -8.16,-3.38 -3.19,0 -6.07,1.29 -8.16,3.38 -2.09,2.09 -3.38,4.97 -3.38,8.16 0,3.2 1.29,6.08 3.37,8.17 2.09,2.08 4.98,3.37 8.17,3.37 3.19,0 6.08,-1.29 8.17,-3.37 2.08,-2.09 3.37,-4.97 3.37,-8.17 0,-3.19 -1.29,-6.07 -3.38,-8.16z"/>
</svg>