{
  "type": "service_account",
  "project_id": "the-british-craft-house",
  "private_key_id": "e4928f1e86dbb5a9a9598c8cde050eedf8c68240",
  "private_key": "-----BEGIN PRIVATE KEY-----\nMIIEvAIBADANBgkqhkiG9w0BAQEFAASCBKYwggSiAgEAAoIBAQDIA9OjheaopsND\nngfGcAxpA7VMA7RDdsur5l+Vp8VfDx0yh10QulUx/GhUB3vIsBGpdzPSYHxk0Rzu\nLnioUATbRVTNOfPRhK+FFGDuCll7VOxP4+w8/llR5A8cP7hTgPPX0JyuaQpcHYk3\nilJZAxEETn2u+qzJO/tFROmYhshaUDSHiLH/yIaqPx6phBzlYgugHCDfC6k8T8bu\n7oDFj0tZ9OQttAXhD16XH3Yf/QHgsBo0RfsRFmMoK1EmQ6/WEIAHlC4rR3uaMRNY\nGkO0mjvW+D5p9CTKcoKjq7+flB0Xy4nBM/zYhX6MPAGYzjYWCxsCL69W6mHK2a9H\nwNEIbDO1AgMBAAECggEASaODCVrUk7YmAOCPS0NYhldLqctZVFdJ4CWGfoJQu9FE\nNiS5Il3/3NHplTpWHAqazhIpfaRxV+rXZGeum4UubI5HjPFvr21S88OPdkRQMoSP\nJlCrWr9oIiq9V3CsS+4XmJbhAKOCoWxsZwrhi40B+FxvkHsRH1uahKO8/x9sZzcm\nesCGL0plN7AsqdD9J4Qdy1DxwpUFTANT30OWwYUv2ZuGlBDrNnbEzgwY8COX/+R0\nra+HDI8tTC0HazNctWfpZr+DzrDMMADtiF3CRVnp/7rGHlde75UoV3SXt8fu3kGm\nAhnzc08SIt0zVCUlEHJj+qRojwGyrzQHlMHjmW3uxwKBgQDtCAE3ZrtpWQAz+xVq\nkOLGEAE2l5bjHuKpBLA5lSfCoeQ8KTLMe/Opl9j5qbbH04rD9dkxMeCM35oVyo+R\nYykPTz+7F2rBjmblgdkRWX/aA9y6OR/IMzEmD3CW6Babied08RV6dNa+MgxyGp5o\nfdK0e+0RN6ysnf/BAxR+eP+wlwKBgQDYBXqJGSNOEZvl1ovyw4FXuO9FS6eYrYiI\nsREw9y+h0EHBvCPoU4XIE127h6G4K8AeOkOCJ1VvSjFFHeoB47pggah9WIMfWeHl\nojs/mIbhUQW8ZorEzScEpgu1vTJe6pbP66WaqBxV/Tf3f2mWZVX9/uqvsrs1sCws\n49DoJTE7kwKBgCOt5cj6HNHRxNcOP34ICyq3NAeMr/jGKGY6v3AbhJ2mkt1/chcX\nvWjU46NJKatQq32t3yCpmlx6OA55rDy9SWv1iOlXsAksr05yykLzTux5Ultxx9fx\n5L8O6eq9StHk40NWGt6RAdYlYHw4h4nBDtt+IARMdiCRs/LQzN/wxMRHAoGAcqM9\nquHfPX/Uxrz7mcIssrveplyGvVxiF4A4Ck8zROD69G/+cj1YwpucY3eP1+fH1YK/\n7qMnEJ9D1FUSqRwL/UjxfEtrkkilu7JDVPWBprLTo26bd+MTMMFZd4HG6F3/2KlK\nQe+y0eNGPx6rjveKEfek3caw2MX8O3pOk9Og8+cCgYBqUceHAPB+mlGCXIfvlHNw\nckWl2lTsb/LEO6vlEaqMhaLWXkNVxmFIgkz1vzWmpQX3BHIiFOPDB3Jxo3gCJI4Q\nP5dRkvYXhJShODVuHLHtB2yVoDbdWWK04vhU8FU/ikewVn/+5WdjCbGFTaSSP6zj\nuwSrCqEQDduZQ8fK7Ixt6g==\n-----END PRIVATE KEY-----\n",
  "client_email": "tbch-ga@the-british-craft-house.iam.gserviceaccount.com",
  "client_id": "113550672776987825823",
  "auth_uri": "https://accounts.google.com/o/oauth2/auth",
  "token_uri": "https://oauth2.googleapis.com/token",
  "auth_provider_x509_cert_url": "https://www.googleapis.com/oauth2/v1/certs",
  "client_x509_cert_url": "https://www.googleapis.com/robot/v1/metadata/x509/tbch-ga%40the-british-craft-house.iam.gserviceaccount.com"
}
